[
    {
        "message": "Bezpečnostní experti z antivirové společnosti Kaspersky Lab varovali před znepokojujícím nárůstem virů, které se zaměřují na krádeže peněz či alespoň přihlašovacích údajů k mobilnímu internetovému bankovnictví. Útočníci přitom sází na to, že lidé velmi často bezpečnost svých účtů podceňují.",
        "date": "8/6/2018",
        "header": "novnika 1"
    },
    {
        "message": "Bezpečnostní experti z antivirové společnosti Kaspersky Lab varovali před znepokojujícím nárůstem virů, které se zaměřují na krádeže peněz či alespoň přihlašovacích údajů k mobilnímu internetovému bankovnictví. Útočníci přitom sází na to, že lidé velmi často bezpečnost svých účtů podceňují.",
        "date": "10/21/2018",
        "header": "novnika 2"
    },
    {
        "message": "Bezpečnostní experti z antivirové společnosti Kaspersky Lab varovali před znepokojujícím nárůstem virů, které se zaměřují na krádeže peněz či alespoň přihlašovacích údajů k mobilnímu internetovému bankovnictví. Útočníci přitom sází na to, že lidé velmi často bezpečnost svých účtů podceňují.",
        "date": "7/12/2018",
        "header": "novnika 3"
    },
    {
        "message": "Bezpečnostní experti z antivirové společnosti Kaspersky Lab varovali před znepokojujícím nárůstem virů, které se zaměřují na krádeže peněz či alespoň přihlašovacích údajů k mobilnímu internetovému bankovnictví. Útočníci přitom sází na to, že lidé velmi často bezpečnost svých účtů podceňují.",
        "date": "12/2/2018",
        "header": "novnika 4"
    },
    {
        "message": "Bezpečnostní experti z antivirové společnosti Kaspersky Lab varovali před znepokojujícím nárůstem virů, které se zaměřují na krádeže peněz či alespoň přihlašovacích údajů k mobilnímu internetovému bankovnictví. Útočníci přitom sází na to, že lidé velmi často bezpečnost svých účtů podceňují.",
        "date": "9/29/2018",
        "header": "novnika 5"
    },
    {
        "message": "Bezpečnostní experti z antivirové společnosti Kaspersky Lab varovali před znepokojujícím nárůstem virů, které se zaměřují na krádeže peněz či alespoň přihlašovacích údajů k mobilnímu internetovému bankovnictví. Útočníci přitom sází na to, že lidé velmi často bezpečnost svých účtů podceňují.",
        "date": "8/31/2018",
        "header": "novnika 6"
    }
]